[
    {
        "description": " PE-1 G1",
        "portName": "GigabitEthernet2",
        "status": "up"
    },
    {
        "description": " PE-3 G3",
        "portName": "GigabitEthernet3",
        "status": "up"
    },
    {
        "description": "",
        "portName": "Loopback0",
        "status": "up"
    }
]